C:\Users\asus\OneDrive\เดสก์ท็อป\Datastucter\DoublyLinked\DoublyLinkedd\src\main\java\com\mycompany\doublylinkedd\DoublyLinkedApp.java
C:\Users\asus\OneDrive\เดสก์ท็อป\Datastucter\DoublyLinked\DoublyLinkedd\src\main\java\com\mycompany\doublylinkedd\DoublyLinkedd.java
C:\Users\asus\OneDrive\เดสก์ท็อป\Datastucter\DoublyLinked\DoublyLinkedd\src\main\java\com\mycompany\doublylinkedd\Link.java
